plotly
…
library(tidyverse)
library(dplyr)
library(p8105.datasets)
data("instacart")
library(plotly)

instacart = 
  instacart |> 
  as_tibble()
  
instacart |> 
  count(aisle) |> 
  arrange(desc(n))  

## # A tibble: 134 × 2
##    aisle                              n
##    <chr>                          <int>
##  1 fresh vegetables              150609
##  2 fresh fruits                  150473
##  3 packaged vegetables fruits     78493
##  4 yogurt                         55240
##  5 packaged cheese                41699
##  6 water seltzer sparkling water  36617
##  7 milk                           32644
##  8 chips pretzels                 31269
##  9 soy lactosefree                26240
## 10 bread                          23635
## # ℹ 124 more rows

instacart |> 
  count(aisle) |> 
  filter(n > 10000) |> 
  mutate(aisle = fct_reorder(aisle, n)) 

## # A tibble: 39 × 2
##    aisle                        n
##    <fct>                    <int>
##  1 baby food formula        13198
##  2 baking ingredients       13088
##  3 bread                    23635
##  4 butter                   10575
##  5 candy chocolate          11453
##  6 canned jarred vegetables 12679
##  7 canned meals beans       11774
##  8 cereal                   16201
##  9 chips pretzels           31269
## 10 crackers                 19592
## # ℹ 29 more rows
…
